module gitlab.com/bloom42/bloom/cmd/bloom

go 1.14

require (
	github.com/99designs/gqlgen v0.11.3
	github.com/asaskevich/govalidator v0.0.0-20200108200545-475eaeb16496
	github.com/getsentry/sentry-go v0.6.0
	github.com/go-chi/chi v4.1.1+incompatible
	github.com/go-chi/cors v1.1.1
	github.com/golang-migrate/migrate/v4 v4.10.0
	github.com/gorilla/websocket v1.4.2 // indirect
	github.com/hashicorp/go-multierror v1.1.0 // indirect
	github.com/hashicorp/golang-lru v0.5.4 // indirect
	github.com/jmoiron/sqlx v1.2.0
	github.com/lib/pq v1.4.0
	github.com/mattn/go-sqlite3 v2.0.3+incompatible // indirect
	github.com/mitchellh/mapstructure v1.2.2 // indirect
	github.com/sirupsen/logrus v1.5.0 // indirect
	github.com/spf13/cobra v1.0.0
	github.com/spf13/pflag v1.0.5 // indirect
	github.com/stripe/stripe-go v70.15.0+incompatible
	github.com/vektah/gqlparser v1.3.1
	github.com/vektah/gqlparser/v2 v2.0.1
	gitlab.com/bloom42/bloom/common v0.0.0-20200424154453-5cd32e8f790e
	gitlab.com/bloom42/lily v0.0.0-20200424193723-b616911efca0
	golang.org/x/crypto v0.0.0-20200423211502-4bdfaf469ed5
	golang.org/x/net v0.0.0-20200226121028-0de0cce0169b // indirect
	golang.org/x/time v0.0.0-20191024005414-555d28b269f0 // indirect
	gopkg.in/yaml.v2 v2.2.8 // indirect
)
